calculator_tb.vcd
$date
  Mon May  1 19:14:15 2017
$end
$version
  GHDL v0
$end
$timescale
  1 fs
$end
$var reg 8 ! i[7:0] $end
$var reg 1 " clk $end
$scope module calculator0 $end
$var reg 8 # i[7:0] $end
$var reg 1 $ clk $end
$var reg 1 % filtered_clk $end
$var reg 1 & we $end
$var reg 1 ' display $end
$var reg 1 ( wd_sel $end
$var reg 1 ) trigger $end
$var reg 1 * cmp_out $end
$var reg 2 + ra[1:0] $end
$var reg 2 , rb[1:0] $end
$var reg 2 - rw[1:0] $end
$var reg 8 . wd[7:0] $end
$var reg 8 / ra_data[7:0] $end
$var reg 8 0 rb_data[7:0] $end
$var reg 8 1 sign_ext_imm[7:0] $end
$var reg 8 2 alu_out[7:0] $end
$scope module reg_file_0 $end
$var reg 2 3 ra[1:0] $end
$var reg 2 4 rb[1:0] $end
$var reg 2 5 rw[1:0] $end
$var reg 8 6 wd[7:0] $end
$var reg 1 7 clk $end
$var reg 1 8 we $end
$var reg 8 9 ra_data[7:0] $end
$var reg 8 : rb_data[7:0] $end
$var reg 8 ; r0[7:0] $end
$var reg 8 < r1[7:0] $end
$var reg 8 = r2[7:0] $end
$var reg 8 > r3[7:0] $end
$upscope $end
$scope module alu $end
$var reg 8 ? input_a[7:0] $end
$var reg 8 @ input_b[7:0] $end
$var reg 1 A addsub_sel $end
$var reg 8 B sum[7:0] $end
$var reg 8 C second_term[7:0] $end
$var reg 8 D inverted_second_term[7:0] $end
$var reg 8 E negative_second_term[7:0] $end
$scope module adder_8bit_0 $end
$var reg 8 F input_a[7:0] $end
$var reg 8 G input_b[7:0] $end
$var reg 8 H sum[7:0] $end
$var reg 1 I c0 $end
$var reg 1 J c1 $end
$var reg 1 K c2 $end
$var reg 1 L c3 $end
$var reg 1 M c4 $end
$var reg 1 N c5 $end
$var reg 1 O c6 $end
$scope module fa0 $end
$var reg 1 P a $end
$var reg 1 Q b $end
$var reg 1 R c_in $end
$var reg 1 S sum $end
$var reg 1 T c_out $end
$var reg 1 U s1 $end
$var reg 1 V s2 $end
$var reg 1 W s3 $end
$scope module h1 $end
$var reg 1 X a $end
$var reg 1 Y b $end
$var reg 1 Z sum $end
$var reg 1 [ carry $end
$upscope $end
$scope module h2 $end
$var reg 1 \ a $end
$var reg 1 ] b $end
$var reg 1 ^ sum $end
$var reg 1 _ carry $end
$upscope $end
$upscope $end
$scope module fa1 $end
$var reg 1 ` a $end
$var reg 1 a b $end
$var reg 1 b c_in $end
$var reg 1 c sum $end
$var reg 1 d c_out $end
$var reg 1 e s1 $end
$var reg 1 f s2 $end
$var reg 1 g s3 $end
$scope module h1 $end
$var reg 1 h a $end
$var reg 1 i b $end
$var reg 1 j sum $end
$var reg 1 k carry $end
$upscope $end
$scope module h2 $end
$var reg 1 l a $end
$var reg 1 m b $end
$var reg 1 n sum $end
$var reg 1 o carry $end
$upscope $end
$upscope $end
$scope module fa2 $end
$var reg 1 p a $end
$var reg 1 q b $end
$var reg 1 r c_in $end
$var reg 1 s sum $end
$var reg 1 t c_out $end
$var reg 1 u s1 $end
$var reg 1 v s2 $end
$var reg 1 w s3 $end
$scope module h1 $end
$var reg 1 x a $end
$var reg 1 y b $end
$var reg 1 z sum $end
$var reg 1 { carry $end
$upscope $end
$scope module h2 $end
$var reg 1 | a $end
$var reg 1 } b $end
$var reg 1 !" sum $end
$var reg 1 "" carry $end
$upscope $end
$upscope $end
$scope module fa3 $end
$var reg 1 #" a $end
$var reg 1 $" b $end
$var reg 1 %" c_in $end
$var reg 1 &" sum $end
$var reg 1 '" c_out $end
$var reg 1 (" s1 $end
$var reg 1 )" s2 $end
$var reg 1 *" s3 $end
$scope module h1 $end
$var reg 1 +" a $end
$var reg 1 ," b $end
$var reg 1 -" sum $end
$var reg 1 ." carry $end
$upscope $end
$scope module h2 $end
$var reg 1 /" a $end
$var reg 1 0" b $end
$var reg 1 1" sum $end
$var reg 1 2" carry $end
$upscope $end
$upscope $end
$scope module fa4 $end
$var reg 1 3" a $end
$var reg 1 4" b $end
$var reg 1 5" c_in $end
$var reg 1 6" sum $end
$var reg 1 7" c_out $end
$var reg 1 8" s1 $end
$var reg 1 9" s2 $end
$var reg 1 :" s3 $end
$scope module h1 $end
$var reg 1 ;" a $end
$var reg 1 <" b $end
$var reg 1 =" sum $end
$var reg 1 >" carry $end
$upscope $end
$scope module h2 $end
$var reg 1 ?" a $end
$var reg 1 @" b $end
$var reg 1 A" sum $end
$var reg 1 B" carry $end
$upscope $end
$upscope $end
$scope module fa5 $end
$var reg 1 C" a $end
$var reg 1 D" b $end
$var reg 1 E" c_in $end
$var reg 1 F" sum $end
$var reg 1 G" c_out $end
$var reg 1 H" s1 $end
$var reg 1 I" s2 $end
$var reg 1 J" s3 $end
$scope module h1 $end
$var reg 1 K" a $end
$var reg 1 L" b $end
$var reg 1 M" sum $end
$var reg 1 N" carry $end
$upscope $end
$scope module h2 $end
$var reg 1 O" a $end
$var reg 1 P" b $end
$var reg 1 Q" sum $end
$var reg 1 R" carry $end
$upscope $end
$upscope $end
$scope module fa6 $end
$var reg 1 S" a $end
$var reg 1 T" b $end
$var reg 1 U" c_in $end
$var reg 1 V" sum $end
$var reg 1 W" c_out $end
$var reg 1 X" s1 $end
$var reg 1 Y" s2 $end
$var reg 1 Z" s3 $end
$scope module h1 $end
$var reg 1 [" a $end
$var reg 1 \" b $end
$var reg 1 ]" sum $end
$var reg 1 ^" carry $end
$upscope $end
$scope module h2 $end
$var reg 1 _" a $end
$var reg 1 `" b $end
$var reg 1 a" sum $end
$var reg 1 b" carry $end
$upscope $end
$upscope $end
$scope module fa7 $end
$var reg 1 c" a $end
$var reg 1 d" b $end
$var reg 1 e" c_in $end
$var reg 1 f" sum $end
$var reg 1 g" c_out $end
$var reg 1 h" s1 $end
$var reg 1 i" s2 $end
$var reg 1 j" s3 $end
$scope module h1 $end
$var reg 1 k" a $end
$var reg 1 l" b $end
$var reg 1 m" sum $end
$var reg 1 n" carry $end
$upscope $end
$scope module h2 $end
$var reg 1 o" a $end
$var reg 1 p" b $end
$var reg 1 q" sum $end
$var reg 1 r" carry $end
$upscope $end
$upscope $end
$upscope $end
$scope module adder_8bit_1 $end
$var reg 8 s" input_a[7:0] $end
$var reg 8 t" input_b[7:0] $end
$var reg 8 u" sum[7:0] $end
$var reg 1 v" c0 $end
$var reg 1 w" c1 $end
$var reg 1 x" c2 $end
$var reg 1 y" c3 $end
$var reg 1 z" c4 $end
$var reg 1 {" c5 $end
$var reg 1 |" c6 $end
$scope module fa0 $end
$var reg 1 }" a $end
$var reg 1 !# b $end
$var reg 1 "# c_in $end
$var reg 1 ## sum $end
$var reg 1 $# c_out $end
$var reg 1 %# s1 $end
$var reg 1 &# s2 $end
$var reg 1 '# s3 $end
$scope module h1 $end
$var reg 1 (# a $end
$var reg 1 )# b $end
$var reg 1 *# sum $end
$var reg 1 +# carry $end
$upscope $end
$scope module h2 $end
$var reg 1 ,# a $end
$var reg 1 -# b $end
$var reg 1 .# sum $end
$var reg 1 /# carry $end
$upscope $end
$upscope $end
$scope module fa1 $end
$var reg 1 0# a $end
$var reg 1 1# b $end
$var reg 1 2# c_in $end
$var reg 1 3# sum $end
$var reg 1 4# c_out $end
$var reg 1 5# s1 $end
$var reg 1 6# s2 $end
$var reg 1 7# s3 $end
$scope module h1 $end
$var reg 1 8# a $end
$var reg 1 9# b $end
$var reg 1 :# sum $end
$var reg 1 ;# carry $end
$upscope $end
$scope module h2 $end
$var reg 1 <# a $end
$var reg 1 =# b $end
$var reg 1 ># sum $end
$var reg 1 ?# carry $end
$upscope $end
$upscope $end
$scope module fa2 $end
$var reg 1 @# a $end
$var reg 1 A# b $end
$var reg 1 B# c_in $end
$var reg 1 C# sum $end
$var reg 1 D# c_out $end
$var reg 1 E# s1 $end
$var reg 1 F# s2 $end
$var reg 1 G# s3 $end
$scope module h1 $end
$var reg 1 H# a $end
$var reg 1 I# b $end
$var reg 1 J# sum $end
$var reg 1 K# carry $end
$upscope $end
$scope module h2 $end
$var reg 1 L# a $end
$var reg 1 M# b $end
$var reg 1 N# sum $end
$var reg 1 O# carry $end
$upscope $end
$upscope $end
$scope module fa3 $end
$var reg 1 P# a $end
$var reg 1 Q# b $end
$var reg 1 R# c_in $end
$var reg 1 S# sum $end
$var reg 1 T# c_out $end
$var reg 1 U# s1 $end
$var reg 1 V# s2 $end
$var reg 1 W# s3 $end
$scope module h1 $end
$var reg 1 X# a $end
$var reg 1 Y# b $end
$var reg 1 Z# sum $end
$var reg 1 [# carry $end
$upscope $end
$scope module h2 $end
$var reg 1 \# a $end
$var reg 1 ]# b $end
$var reg 1 ^# sum $end
$var reg 1 _# carry $end
$upscope $end
$upscope $end
$scope module fa4 $end
$var reg 1 `# a $end
$var reg 1 a# b $end
$var reg 1 b# c_in $end
$var reg 1 c# sum $end
$var reg 1 d# c_out $end
$var reg 1 e# s1 $end
$var reg 1 f# s2 $end
$var reg 1 g# s3 $end
$scope module h1 $end
$var reg 1 h# a $end
$var reg 1 i# b $end
$var reg 1 j# sum $end
$var reg 1 k# carry $end
$upscope $end
$scope module h2 $end
$var reg 1 l# a $end
$var reg 1 m# b $end
$var reg 1 n# sum $end
$var reg 1 o# carry $end
$upscope $end
$upscope $end
$scope module fa5 $end
$var reg 1 p# a $end
$var reg 1 q# b $end
$var reg 1 r# c_in $end
$var reg 1 s# sum $end
$var reg 1 t# c_out $end
$var reg 1 u# s1 $end
$var reg 1 v# s2 $end
$var reg 1 w# s3 $end
$scope module h1 $end
$var reg 1 x# a $end
$var reg 1 y# b $end
$var reg 1 z# sum $end
$var reg 1 {# carry $end
$upscope $end
$scope module h2 $end
$var reg 1 |# a $end
$var reg 1 }# b $end
$var reg 1 !$ sum $end
$var reg 1 "$ carry $end
$upscope $end
$upscope $end
$scope module fa6 $end
$var reg 1 #$ a $end
$var reg 1 $$ b $end
$var reg 1 %$ c_in $end
$var reg 1 &$ sum $end
$var reg 1 '$ c_out $end
$var reg 1 ($ s1 $end
$var reg 1 )$ s2 $end
$var reg 1 *$ s3 $end
$scope module h1 $end
$var reg 1 +$ a $end
$var reg 1 ,$ b $end
$var reg 1 -$ sum $end
$var reg 1 .$ carry $end
$upscope $end
$scope module h2 $end
$var reg 1 /$ a $end
$var reg 1 0$ b $end
$var reg 1 1$ sum $end
$var reg 1 2$ carry $end
$upscope $end
$upscope $end
$scope module fa7 $end
$var reg 1 3$ a $end
$var reg 1 4$ b $end
$var reg 1 5$ c_in $end
$var reg 1 6$ sum $end
$var reg 1 7$ c_out $end
$var reg 1 8$ s1 $end
$var reg 1 9$ s2 $end
$var reg 1 :$ s3 $end
$scope module h1 $end
$var reg 1 ;$ a $end
$var reg 1 <$ b $end
$var reg 1 =$ sum $end
$var reg 1 >$ carry $end
$upscope $end
$scope module h2 $end
$var reg 1 ?$ a $end
$var reg 1 @$ b $end
$var reg 1 A$ sum $end
$var reg 1 B$ carry $end
$upscope $end
$upscope $end
$upscope $end
$upscope $end
$scope module clk_filter_0 $end
$var reg 1 C$ clk_in $end
$var reg 1 D$ clk_out $end
$var reg 1 E$ s $end
$var reg 1 F$ trigger $end
$var reg 1 G$ q0 $end
$var reg 1 H$ q1 $end
$var reg 1 I$ q2 $end
$var reg 1 J$ q3 $end
$var reg 1 K$ q4 $end
$var reg 1 L$ d3 $end
$var reg 1 M$ d4 $end
$scope module dff0 $end
$var reg 1 N$ clk $end
$var reg 1 O$ r $end
$var reg 1 P$ d $end
$var reg 1 Q$ q $end
$upscope $end
$scope module dff1 $end
$var reg 1 R$ clk $end
$var reg 1 S$ r $end
$var reg 1 T$ d $end
$var reg 1 U$ q $end
$upscope $end
$scope module dff2 $end
$var reg 1 V$ clk $end
$var reg 1 W$ r $end
$var reg 1 X$ d $end
$var reg 1 Y$ q $end
$upscope $end
$scope module dl0 $end
$var reg 1 Z$ e $end
$var reg 1 [$ d $end
$var reg 1 \$ q $end
$upscope $end
$scope module dl1 $end
$var reg 1 ]$ e $end
$var reg 1 ^$ d $end
$var reg 1 _$ q $end
$upscope $end
$upscope $end
$upscope $end
$enddefinitions $end
#0
b00000000 !
0"
b00000000 #
0$
0%
0&
1'
1(
0)
U*
b00 +
b00 ,
b00 -
bUUUUUUUU .
bUUUUUUUU /
bUUUUUUUU 0
b00000000 1
bUUUUUUUU 2
b00 3
b00 4
b00 5
bUUUUUUUU 6
07
08
bUUUUUUUU 9
bUUUUUUUU :
b00000000 ;
b00000000 <
b00000000 =
b00000000 >
bUUUUUUUU ?
bUUUUUUUU @
0A
bUUUUUUUU B
bUUUUUUUU C
bUUUUUUUU D
bUUUUUUUU E
bUUUUUUUU F
bUUUUUUUU G
bUUUUUUUU H
UI
UJ
UK
UL
UM
UN
UO
UP
UQ
0R
US
UT
UU
0V
UW
UX
UY
UZ
U[
U\
0]
U^
0_
U`
Ua
Ub
Uc
Ud
Ue
Uf
Ug
Uh
Ui
Uj
Uk
Ul
Um
Un
Uo
Up
Uq
Ur
Us
Ut
Uu
Uv
Uw
Ux
Uy
Uz
U{
U|
U}
U!"
U""
U#"
U$"
U%"
U&"
U'"
U("
U)"
U*"
U+"
U,"
U-"
U."
U/"
U0"
U1"
U2"
U3"
U4"
U5"
U6"
U7"
U8"
U9"
U:"
U;"
U<"
U="
U>"
U?"
U@"
UA"
UB"
UC"
UD"
UE"
UF"
UG"
UH"
UI"
UJ"
UK"
UL"
UM"
UN"
UO"
UP"
UQ"
UR"
US"
UT"
UU"
UV"
UW"
UX"
UY"
UZ"
U["
U\"
U]"
U^"
U_"
U`"
Ua"
Ub"
Uc"
Ud"
Ue"
Uf"
Ug"
Uh"
Ui"
Uj"
Uk"
Ul"
Um"
Un"
Uo"
Up"
Uq"
Ur"
bUUUUUUUU s"
b00000001 t"
bUUUUUUUU u"
Uv"
Uw"
Ux"
Uy"
Uz"
U{"
U|"
U}"
1!#
0"#
U##
U$#
U%#
0&#
U'#
U(#
1)#
U*#
U+#
U,#
0-#
U.#
0/#
U0#
01#
U2#
U3#
U4#
U5#
U6#
07#
U8#
09#
U:#
0;#
U<#
U=#
U>#
U?#
U@#
0A#
UB#
UC#
UD#
UE#
UF#
0G#
UH#
0I#
UJ#
0K#
UL#
UM#
UN#
UO#
UP#
0Q#
UR#
US#
UT#
UU#
UV#
0W#
UX#
0Y#
UZ#
0[#
U\#
U]#
U^#
U_#
U`#
0a#
Ub#
Uc#
Ud#
Ue#
Uf#
0g#
Uh#
0i#
Uj#
0k#
Ul#
Um#
Un#
Uo#
Up#
0q#
Ur#
Us#
Ut#
Uu#
Uv#
0w#
Ux#
0y#
Uz#
0{#
U|#
U}#
U!$
U"$
U#$
0$$
U%$
U&$
U'$
U($
U)$
0*$
U+$
0,$
U-$
0.$
U/$
U0$
U1$
U2$
U3$
04$
U5$
U6$
U7$
U8$
U9$
0:$
U;$
0<$
U=$
0>$
U?$
U@$
UA$
UB$
0C$
0D$
0E$
0F$
UG$
UH$
UI$
UJ$
UK$
0L$
0M$
0N$
UO$
1P$
UQ$
0R$
US$
UT$
UU$
0V$
0W$
UX$
UY$
0Z$
0[$
U\$
0]$
0^$
U_$
#1000000
1"
1$
1%
1*
b00000000 .
b00000000 /
b00000000 0
b00000000 2
b00000000 6
17
b00000000 9
b00000000 :
b00000000 ?
b00000000 @
b00000000 B
b00000000 C
b11111111 D
b00000000 E
b00000000 F
b00000000 G
b00000000 H
0I
0J
0K
0L
0M
0N
0O
0P
0Q
0S
0T
0U
0W
0X
0Y
0Z
0[
0\
0^
0`
0a
0b
0c
0d
0e
0f
0g
0h
0i
0j
0k
0l
0m
0n
0o
0p
0q
0r
0s
0t
0u
0v
0w
0x
0y
0z
0{
0|
0}
0!"
0""
0#"
0$"
0%"
0&"
0'"
0("
0)"
0*"
0+"
0,"
0-"
0."
0/"
00"
01"
02"
03"
04"
05"
06"
07"
08"
09"
0:"
0;"
0<"
0="
0>"
0?"
0@"
0A"
0B"
0C"
0D"
0E"
0F"
0G"
0H"
0I"
0J"
0K"
0L"
0M"
0N"
0O"
0P"
0Q"
0R"
0S"
0T"
0U"
0V"
0W"
0X"
0Y"
0Z"
0["
0\"
0]"
0^"
0_"
0`"
0a"
0b"
0c"
0d"
0e"
0f"
0g"
0h"
0i"
0j"
0k"
0l"
0m"
0n"
0o"
0p"
0q"
0r"
b11111111 s"
b00000000 u"
1v"
1w"
1x"
1y"
1z"
1{"
1|"
1}"
0##
1$#
0%#
1'#
1(#
0*#
1+#
0,#
0.#
10#
12#
03#
14#
15#
16#
18#
1:#
1<#
1=#
0>#
1?#
1@#
1B#
0C#
1D#
1E#
1F#
1H#
1J#
1L#
1M#
0N#
1O#
1P#
1R#
0S#
1T#
1U#
1V#
1X#
1Z#
1\#
1]#
0^#
1_#
1`#
1b#
0c#
1d#
1e#
1f#
1h#
1j#
1l#
1m#
0n#
1o#
1p#
1r#
0s#
1t#
1u#
1v#
1x#
1z#
1|#
1}#
0!$
1"$
1#$
1%$
0&$
1'$
1($
1)$
1+$
1-$
1/$
10$
01$
12$
13$
15$
06$
17$
18$
19$
1;$
1=$
1?$
1@$
0A$
1B$
1C$
1D$
1G$
0J$
0K$
1N$
0O$
1Q$
1R$
0S$
1T$
1V$
1Z$
0\$
1]$
0_$
#2000000
0"
0$
0%
07
0C$
0D$
0N$
0R$
0V$
0Z$
0]$
#3000000
1"
1$
1%
17
1C$
1D$
1H$
1N$
1R$
1U$
1V$
1X$
1Z$
1]$
#4000000
0"
0$
0%
07
0C$
0D$
0N$
0R$
0V$
0Z$
0]$
#5000000
1"
1$
1%
17
1C$
1D$
1I$
1N$
1R$
1V$
1Y$
1Z$
1]$
#6000000
0"
0$
0%
07
0C$
0D$
0N$
0R$
0V$
0Z$
0]$
#7000000
1"
1$
1%
17
1C$
1D$
1N$
1R$
1V$
1Z$
1]$
#8000000
0"
0$
0%
07
0C$
0D$
0N$
0R$
0V$
0Z$
0]$
#9000000
1"
1$
1%
17
1C$
1D$
1N$
1R$
1V$
1Z$
1]$
#10000000
0"
0$
0%
07
0C$
0D$
0N$
0R$
0V$
0Z$
0]$
#11000000
1"
1$
1%
17
1C$
1D$
1N$
1R$
1V$
1Z$
1]$
