calculator_tb.vcd
$date
  Tue May  2 00:19:35 2017
$end
$version
  GHDL v0
$end
$timescale
  1 fs
$end
$var reg 8 ! i[7:0] $end
$var reg 1 " clk $end
$scope module calculator_0 $end
$var reg 8 # i[7:0] $end
$var reg 1 $ clk $end
$var reg 1 % filtered_clk $end
$var reg 1 & we $end
$var reg 1 ' display $end
$var reg 1 ( wd_sel $end
$var reg 1 ) trigger $end
$var reg 1 * cmp_out $end
$var reg 2 + ra[1:0] $end
$var reg 2 , rb[1:0] $end
$var reg 2 - rw[1:0] $end
$var reg 8 . wd[7:0] $end
$var reg 8 / ra_data[7:0] $end
$var reg 8 0 rb_data[7:0] $end
$var reg 8 1 sign_ext_imm[7:0] $end
$var reg 8 2 alu_out[7:0] $end
$scope module reg_file_0 $end
$var reg 2 3 ra[1:0] $end
$var reg 2 4 rb[1:0] $end
$var reg 2 5 rw[1:0] $end
$var reg 8 6 wd[7:0] $end
$var reg 1 7 clk $end
$var reg 1 8 we $end
$var reg 8 9 ra_data[7:0] $end
$var reg 8 : rb_data[7:0] $end
$var reg 8 ; r0[7:0] $end
$var reg 8 < r1[7:0] $end
$var reg 8 = r2[7:0] $end
$var reg 8 > r3[7:0] $end
$upscope $end
$scope module alu $end
$var reg 8 ? input_a[7:0] $end
$var reg 8 @ input_b[7:0] $end
$var reg 1 A addsub_sel $end
$var reg 8 B sum[7:0] $end
$var reg 8 C second_term[7:0] $end
$var reg 8 D inverted_second_term[7:0] $end
$var reg 8 E negative_second_term[7:0] $end
$scope module adder_8bit_0 $end
$var reg 8 F input_a[7:0] $end
$var reg 8 G input_b[7:0] $end
$var reg 8 H sum[7:0] $end
$var reg 1 I c0 $end
$var reg 1 J c1 $end
$var reg 1 K c2 $end
$var reg 1 L c3 $end
$var reg 1 M c4 $end
$var reg 1 N c5 $end
$var reg 1 O c6 $end
$scope module fa0 $end
$var reg 1 P a $end
$var reg 1 Q b $end
$var reg 1 R c_in $end
$var reg 1 S sum $end
$var reg 1 T c_out $end
$var reg 1 U s1 $end
$var reg 1 V s2 $end
$var reg 1 W s3 $end
$scope module h1 $end
$var reg 1 X a $end
$var reg 1 Y b $end
$var reg 1 Z sum $end
$var reg 1 [ carry $end
$upscope $end
$scope module h2 $end
$var reg 1 \ a $end
$var reg 1 ] b $end
$var reg 1 ^ sum $end
$var reg 1 _ carry $end
$upscope $end
$upscope $end
$scope module fa1 $end
$var reg 1 ` a $end
$var reg 1 a b $end
$var reg 1 b c_in $end
$var reg 1 c sum $end
$var reg 1 d c_out $end
$var reg 1 e s1 $end
$var reg 1 f s2 $end
$var reg 1 g s3 $end
$scope module h1 $end
$var reg 1 h a $end
$var reg 1 i b $end
$var reg 1 j sum $end
$var reg 1 k carry $end
$upscope $end
$scope module h2 $end
$var reg 1 l a $end
$var reg 1 m b $end
$var reg 1 n sum $end
$var reg 1 o carry $end
$upscope $end
$upscope $end
$scope module fa2 $end
$var reg 1 p a $end
$var reg 1 q b $end
$var reg 1 r c_in $end
$var reg 1 s sum $end
$var reg 1 t c_out $end
$var reg 1 u s1 $end
$var reg 1 v s2 $end
$var reg 1 w s3 $end
$scope module h1 $end
$var reg 1 x a $end
$var reg 1 y b $end
$var reg 1 z sum $end
$var reg 1 { carry $end
$upscope $end
$scope module h2 $end
$var reg 1 | a $end
$var reg 1 } b $end
$var reg 1 !" sum $end
$var reg 1 "" carry $end
$upscope $end
$upscope $end
$scope module fa3 $end
$var reg 1 #" a $end
$var reg 1 $" b $end
$var reg 1 %" c_in $end
$var reg 1 &" sum $end
$var reg 1 '" c_out $end
$var reg 1 (" s1 $end
$var reg 1 )" s2 $end
$var reg 1 *" s3 $end
$scope module h1 $end
$var reg 1 +" a $end
$var reg 1 ," b $end
$var reg 1 -" sum $end
$var reg 1 ." carry $end
$upscope $end
$scope module h2 $end
$var reg 1 /" a $end
$var reg 1 0" b $end
$var reg 1 1" sum $end
$var reg 1 2" carry $end
$upscope $end
$upscope $end
$scope module fa4 $end
$var reg 1 3" a $end
$var reg 1 4" b $end
$var reg 1 5" c_in $end
$var reg 1 6" sum $end
$var reg 1 7" c_out $end
$var reg 1 8" s1 $end
$var reg 1 9" s2 $end
$var reg 1 :" s3 $end
$scope module h1 $end
$var reg 1 ;" a $end
$var reg 1 <" b $end
$var reg 1 =" sum $end
$var reg 1 >" carry $end
$upscope $end
$scope module h2 $end
$var reg 1 ?" a $end
$var reg 1 @" b $end
$var reg 1 A" sum $end
$var reg 1 B" carry $end
$upscope $end
$upscope $end
$scope module fa5 $end
$var reg 1 C" a $end
$var reg 1 D" b $end
$var reg 1 E" c_in $end
$var reg 1 F" sum $end
$var reg 1 G" c_out $end
$var reg 1 H" s1 $end
$var reg 1 I" s2 $end
$var reg 1 J" s3 $end
$scope module h1 $end
$var reg 1 K" a $end
$var reg 1 L" b $end
$var reg 1 M" sum $end
$var reg 1 N" carry $end
$upscope $end
$scope module h2 $end
$var reg 1 O" a $end
$var reg 1 P" b $end
$var reg 1 Q" sum $end
$var reg 1 R" carry $end
$upscope $end
$upscope $end
$scope module fa6 $end
$var reg 1 S" a $end
$var reg 1 T" b $end
$var reg 1 U" c_in $end
$var reg 1 V" sum $end
$var reg 1 W" c_out $end
$var reg 1 X" s1 $end
$var reg 1 Y" s2 $end
$var reg 1 Z" s3 $end
$scope module h1 $end
$var reg 1 [" a $end
$var reg 1 \" b $end
$var reg 1 ]" sum $end
$var reg 1 ^" carry $end
$upscope $end
$scope module h2 $end
$var reg 1 _" a $end
$var reg 1 `" b $end
$var reg 1 a" sum $end
$var reg 1 b" carry $end
$upscope $end
$upscope $end
$scope module fa7 $end
$var reg 1 c" a $end
$var reg 1 d" b $end
$var reg 1 e" c_in $end
$var reg 1 f" sum $end
$var reg 1 g" c_out $end
$var reg 1 h" s1 $end
$var reg 1 i" s2 $end
$var reg 1 j" s3 $end
$scope module h1 $end
$var reg 1 k" a $end
$var reg 1 l" b $end
$var reg 1 m" sum $end
$var reg 1 n" carry $end
$upscope $end
$scope module h2 $end
$var reg 1 o" a $end
$var reg 1 p" b $end
$var reg 1 q" sum $end
$var reg 1 r" carry $end
$upscope $end
$upscope $end
$upscope $end
$scope module adder_8bit_1 $end
$var reg 8 s" input_a[7:0] $end
$var reg 8 t" input_b[7:0] $end
$var reg 8 u" sum[7:0] $end
$var reg 1 v" c0 $end
$var reg 1 w" c1 $end
$var reg 1 x" c2 $end
$var reg 1 y" c3 $end
$var reg 1 z" c4 $end
$var reg 1 {" c5 $end
$var reg 1 |" c6 $end
$scope module fa0 $end
$var reg 1 }" a $end
$var reg 1 !# b $end
$var reg 1 "# c_in $end
$var reg 1 ## sum $end
$var reg 1 $# c_out $end
$var reg 1 %# s1 $end
$var reg 1 &# s2 $end
$var reg 1 '# s3 $end
$scope module h1 $end
$var reg 1 (# a $end
$var reg 1 )# b $end
$var reg 1 *# sum $end
$var reg 1 +# carry $end
$upscope $end
$scope module h2 $end
$var reg 1 ,# a $end
$var reg 1 -# b $end
$var reg 1 .# sum $end
$var reg 1 /# carry $end
$upscope $end
$upscope $end
$scope module fa1 $end
$var reg 1 0# a $end
$var reg 1 1# b $end
$var reg 1 2# c_in $end
$var reg 1 3# sum $end
$var reg 1 4# c_out $end
$var reg 1 5# s1 $end
$var reg 1 6# s2 $end
$var reg 1 7# s3 $end
$scope module h1 $end
$var reg 1 8# a $end
$var reg 1 9# b $end
$var reg 1 :# sum $end
$var reg 1 ;# carry $end
$upscope $end
$scope module h2 $end
$var reg 1 <# a $end
$var reg 1 =# b $end
$var reg 1 ># sum $end
$var reg 1 ?# carry $end
$upscope $end
$upscope $end
$scope module fa2 $end
$var reg 1 @# a $end
$var reg 1 A# b $end
$var reg 1 B# c_in $end
$var reg 1 C# sum $end
$var reg 1 D# c_out $end
$var reg 1 E# s1 $end
$var reg 1 F# s2 $end
$var reg 1 G# s3 $end
$scope module h1 $end
$var reg 1 H# a $end
$var reg 1 I# b $end
$var reg 1 J# sum $end
$var reg 1 K# carry $end
$upscope $end
$scope module h2 $end
$var reg 1 L# a $end
$var reg 1 M# b $end
$var reg 1 N# sum $end
$var reg 1 O# carry $end
$upscope $end
$upscope $end
$scope module fa3 $end
$var reg 1 P# a $end
$var reg 1 Q# b $end
$var reg 1 R# c_in $end
$var reg 1 S# sum $end
$var reg 1 T# c_out $end
$var reg 1 U# s1 $end
$var reg 1 V# s2 $end
$var reg 1 W# s3 $end
$scope module h1 $end
$var reg 1 X# a $end
$var reg 1 Y# b $end
$var reg 1 Z# sum $end
$var reg 1 [# carry $end
$upscope $end
$scope module h2 $end
$var reg 1 \# a $end
$var reg 1 ]# b $end
$var reg 1 ^# sum $end
$var reg 1 _# carry $end
$upscope $end
$upscope $end
$scope module fa4 $end
$var reg 1 `# a $end
$var reg 1 a# b $end
$var reg 1 b# c_in $end
$var reg 1 c# sum $end
$var reg 1 d# c_out $end
$var reg 1 e# s1 $end
$var reg 1 f# s2 $end
$var reg 1 g# s3 $end
$scope module h1 $end
$var reg 1 h# a $end
$var reg 1 i# b $end
$var reg 1 j# sum $end
$var reg 1 k# carry $end
$upscope $end
$scope module h2 $end
$var reg 1 l# a $end
$var reg 1 m# b $end
$var reg 1 n# sum $end
$var reg 1 o# carry $end
$upscope $end
$upscope $end
$scope module fa5 $end
$var reg 1 p# a $end
$var reg 1 q# b $end
$var reg 1 r# c_in $end
$var reg 1 s# sum $end
$var reg 1 t# c_out $end
$var reg 1 u# s1 $end
$var reg 1 v# s2 $end
$var reg 1 w# s3 $end
$scope module h1 $end
$var reg 1 x# a $end
$var reg 1 y# b $end
$var reg 1 z# sum $end
$var reg 1 {# carry $end
$upscope $end
$scope module h2 $end
$var reg 1 |# a $end
$var reg 1 }# b $end
$var reg 1 !$ sum $end
$var reg 1 "$ carry $end
$upscope $end
$upscope $end
$scope module fa6 $end
$var reg 1 #$ a $end
$var reg 1 $$ b $end
$var reg 1 %$ c_in $end
$var reg 1 &$ sum $end
$var reg 1 '$ c_out $end
$var reg 1 ($ s1 $end
$var reg 1 )$ s2 $end
$var reg 1 *$ s3 $end
$scope module h1 $end
$var reg 1 +$ a $end
$var reg 1 ,$ b $end
$var reg 1 -$ sum $end
$var reg 1 .$ carry $end
$upscope $end
$scope module h2 $end
$var reg 1 /$ a $end
$var reg 1 0$ b $end
$var reg 1 1$ sum $end
$var reg 1 2$ carry $end
$upscope $end
$upscope $end
$scope module fa7 $end
$var reg 1 3$ a $end
$var reg 1 4$ b $end
$var reg 1 5$ c_in $end
$var reg 1 6$ sum $end
$var reg 1 7$ c_out $end
$var reg 1 8$ s1 $end
$var reg 1 9$ s2 $end
$var reg 1 :$ s3 $end
$scope module h1 $end
$var reg 1 ;$ a $end
$var reg 1 <$ b $end
$var reg 1 =$ sum $end
$var reg 1 >$ carry $end
$upscope $end
$scope module h2 $end
$var reg 1 ?$ a $end
$var reg 1 @$ b $end
$var reg 1 A$ sum $end
$var reg 1 B$ carry $end
$upscope $end
$upscope $end
$upscope $end
$upscope $end
$scope module clk_filter_0 $end
$var reg 1 C$ clk_in $end
$var reg 1 D$ clk_out $end
$var reg 1 E$ s $end
$var reg 1 F$ trigger $end
$var reg 1 G$ q0 $end
$var reg 1 H$ q1 $end
$var reg 1 I$ q2 $end
$var reg 1 J$ q4 $end
$var reg 1 K$ d3 $end
$var reg 1 L$ d4 $end
$var reg 1 M$ q3 $end
$scope module dff0 $end
$var reg 1 N$ clk $end
$var reg 1 O$ r $end
$var reg 1 P$ d $end
$var reg 1 Q$ q $end
$var reg 1 R$ qt $end
$upscope $end
$scope module dff1 $end
$var reg 1 S$ clk $end
$var reg 1 T$ r $end
$var reg 1 U$ d $end
$var reg 1 V$ q $end
$var reg 1 W$ qt $end
$upscope $end
$scope module dff2 $end
$var reg 1 X$ clk $end
$var reg 1 Y$ r $end
$var reg 1 Z$ d $end
$var reg 1 [$ q $end
$var reg 1 \$ qt $end
$upscope $end
$scope module dl0 $end
$var reg 1 ]$ e $end
$var reg 1 ^$ d $end
$var reg 1 _$ q $end
$var reg 1 `$ t $end
$upscope $end
$scope module dl1 $end
$var reg 1 a$ e $end
$var reg 1 b$ d $end
$var reg 1 c$ q $end
$var reg 1 d$ t $end
$upscope $end
$upscope $end
$upscope $end
$enddefinitions $end
#0
bUUUUUUUU !
U"
bUUUUUUUU #
U$
U%
U&
U'
U(
U)
1*
bUU +
bUU ,
bUU -
b00000000 .
b00000000 /
b00000000 0
b0000UUUU 1
b00000000 2
bUU 3
bUU 4
bUU 5
b00000000 6
U7
U8
b00000000 9
b00000000 :
b00000000 ;
b00000000 <
b00000000 =
b00000000 >
b00000000 ?
b00000000 @
UA
b00000000 B
b00000000 C
b11111111 D
b00000000 E
b00000000 F
b00000000 G
b00000000 H
0I
0J
0K
0L
0M
0N
0O
0P
0Q
0R
0S
0T
0U
0V
0W
0X
0Y
0Z
0[
0\
0]
0^
0_
0`
0a
0b
0c
0d
0e
0f
0g
0h
0i
0j
0k
0l
0m
0n
0o
0p
0q
0r
0s
0t
0u
0v
0w
0x
0y
0z
0{
0|
0}
0!"
0""
0#"
0$"
0%"
0&"
0'"
0("
0)"
0*"
0+"
0,"
0-"
0."
0/"
00"
01"
02"
03"
04"
05"
06"
07"
08"
09"
0:"
0;"
0<"
0="
0>"
0?"
0@"
0A"
0B"
0C"
0D"
0E"
0F"
0G"
0H"
0I"
0J"
0K"
0L"
0M"
0N"
0O"
0P"
0Q"
0R"
0S"
0T"
0U"
0V"
0W"
0X"
0Y"
0Z"
0["
0\"
0]"
0^"
0_"
0`"
0a"
0b"
0c"
0d"
0e"
0f"
0g"
0h"
0i"
0j"
0k"
0l"
0m"
0n"
0o"
0p"
0q"
0r"
b11111111 s"
b00000001 t"
b00000000 u"
1v"
1w"
1x"
1y"
1z"
1{"
1|"
1}"
1!#
0"#
0##
1$#
0%#
0&#
1'#
1(#
1)#
0*#
1+#
0,#
0-#
0.#
0/#
10#
01#
12#
03#
14#
15#
16#
07#
18#
09#
1:#
0;#
1<#
1=#
0>#
1?#
1@#
0A#
1B#
0C#
1D#
1E#
1F#
0G#
1H#
0I#
1J#
0K#
1L#
1M#
0N#
1O#
1P#
0Q#
1R#
0S#
1T#
1U#
1V#
0W#
1X#
0Y#
1Z#
0[#
1\#
1]#
0^#
1_#
1`#
0a#
1b#
0c#
1d#
1e#
1f#
0g#
1h#
0i#
1j#
0k#
1l#
1m#
0n#
1o#
1p#
0q#
1r#
0s#
1t#
1u#
1v#
0w#
1x#
0y#
1z#
0{#
1|#
1}#
0!$
1"$
1#$
0$$
1%$
0&$
1'$
1($
1)$
0*$
1+$
0,$
1-$
0.$
1/$
10$
01$
12$
13$
04$
15$
06$
17$
18$
19$
0:$
1;$
0<$
1=$
0>$
1?$
1@$
0A$
1B$
UC$
UD$
UE$
UF$
1G$
1H$
1I$
0J$
UK$
UL$
0M$
UN$
0O$
1P$
1Q$
1R$
US$
0T$
1U$
1V$
1W$
UX$
0Y$
1Z$
1[$
1\$
U]$
U^$
0_$
0`$
Ua$
Ub$
0c$
0d$
#1000
UD$
#999000
b00000000 !
0"
b00000000 #
0$
0&
1'
1(
0)
b00 +
b00 ,
b00 -
b00000000 1
b00 3
b00 4
b00 5
08
0A
0C$
0E$
0F$
0K$
0L$
0N$
0S$
0X$
0]$
0^$
0a$
0b$
#1000000
0%
07
0D$
#1999000
1"
1$
1C$
1N$
1S$
1X$
1]$
1a$
#2000000
1%
17
1D$
#2999000
b00001000 !
0"
b00001000 #
0$
b01 +
b11111000 1
b01 3
0C$
0N$
0S$
0X$
0]$
0a$
#3000000
0%
07
0D$
#3999000
1"
1$
1C$
1N$
1S$
1X$
1]$
1a$
#4000000
1%
17
1D$
#4999000
b00010000 !
0"
b00010000 #
0$
b10 +
b01 -
b00000000 1
b10 3
b01 5
0C$
1E$
0N$
0S$
0X$
0]$
0a$
#5000000
0%
07
0D$
#5999000
1"
1$
1C$
1N$
1S$
1X$
1]$
1a$
#6000000
1%
17
1D$
#6999000
b00011000 !
0"
b00011000 #
0$
b11 +
b11111000 1
b11 3
0C$
0N$
0S$
0X$
0]$
0a$
#7000000
0%
07
0D$
#7999000
1"
1$
1C$
1N$
1S$
1X$
1]$
1a$
#8000000
1%
17
1D$
#8999000
b11000001 !
0"
b11000001 #
0$
1&
0'
0(
b00 +
b01 ,
b00 -
b00000001 .
b00000001 1
b00 3
b01 4
b00 5
b00000001 6
18
1A
0C$
0E$
0N$
0S$
0X$
0]$
0a$
#9000000
0%
07
0D$
#9999000
1"
1$
1C$
1N$
1S$
1X$
1]$
1a$
#10000000
1%
0*
b00000001 /
b00000001 2
17
b00000001 9
b00000001 ;
b00000001 ?
b00000001 B
b00000001 F
b00000001 H
1P
1S
1U
1X
1Z
1\
1^
1D$
#10999000
b00000000 !
0"
b00000000 #
0$
0&
1'
1(
1*
b00 ,
b00000010 .
b00000001 0
b00000000 1
b00000010 2
b00 4
b00000010 6
08
b00000001 :
b00000001 @
0A
b00000010 B
b00000001 C
b11111110 D
b11111111 E
b00000001 G
b00000010 H
1I
1Q
0S
1T
0U
1W
1Y
0Z
1[
0\
0^
1b
1c
1m
1n
b11111110 s"
b11111111 u"
0v"
0w"
0x"
0y"
0z"
0{"
0|"
0}"
1##
0$#
1%#
0'#
0(#
1*#
0+#
1,#
1.#
02#
13#
04#
06#
0=#
1>#
0?#
0B#
1C#
0D#
0F#
0M#
1N#
0O#
0R#
1S#
0T#
0V#
0]#
1^#
0_#
0b#
1c#
0d#
0f#
0m#
1n#
0o#
0r#
1s#
0t#
0v#
0}#
1!$
0"$
0%$
1&$
0'$
0)$
00$
11$
02$
05$
16$
07$
09$
0@$
1A$
0B$
0C$
0N$
0S$
0X$
0]$
0a$
#11000000
0%
07
0D$
#11999000
1"
1$
1C$
1N$
1S$
1X$
1]$
1a$
#12000000
1%
17
1D$
#12999000
b11010111 !
0"
b11010111 #
0$
1&
0'
0(
b01 +
b11 ,
b01 -
b00000111 .
b00000000 /
b00000000 0
b00000111 1
b00000000 2
b01 3
b11 4
b01 5
b00000111 6
18
b00000000 9
b00000000 :
b00000000 ?
b00000000 @
1A
b00000000 B
b00000000 C
b11111111 D
b00000000 E
b00000000 F
b00000000 G
b00000000 H
0I
0J
0K
0L
0M
0N
0O
0P
0Q
0S
0T
0U
0W
0X
0Y
0Z
0[
0\
0^
0a
0b
0c
0d
0e
0f
0i
0j
0l
0m
0n
0o
0q
0r
0s
0t
0u
0v
0y
0z
0|
0}
0!"
0""
0$"
0%"
0&"
0'"
0("
0)"
0,"
0-"
0/"
00"
01"
02"
04"
05"
06"
07"
08"
09"
0<"
0="
0?"
0@"
0A"
0B"
0D"
0E"
0F"
0G"
0H"
0I"
0L"
0M"
0O"
0P"
0Q"
0R"
0T"
0U"
0V"
0W"
0X"
0Y"
0\"
0]"
0_"
0`"
0a"
0b"
0d"
0e"
0f"
0g"
0h"
0i"
0l"
0m"
0o"
0p"
0q"
0r"
b11111111 s"
b00000000 u"
1v"
1w"
1x"
1y"
1z"
1{"
1|"
1}"
0##
1$#
0%#
1'#
1(#
0*#
1+#
0,#
0.#
12#
03#
14#
16#
1=#
0>#
1?#
1B#
0C#
1D#
1F#
1M#
0N#
1O#
1R#
0S#
1T#
1V#
1]#
0^#
1_#
1b#
0c#
1d#
1f#
1m#
0n#
1o#
1r#
0s#
1t#
1v#
1}#
0!$
1"$
1%$
0&$
1'$
1)$
10$
01$
12$
15$
06$
17$
19$
1@$
0A$
1B$
0C$
1E$
0N$
0S$
0X$
0]$
0a$
#13000000
0%
07
0D$
#13999000
1"
1$
1C$
1N$
1S$
1X$
1]$
1a$
#14000000
1%
0*
b00000111 /
b00000111 2
17
b00000111 9
b00000111 <
b00000111 ?
b00000111 B
b00000111 F
b00000111 H
1P
1S
1U
1X
1Z
1\
1^
1`
1c
1e
1h
1j
1l
1n
1p
1s
1u
1x
1z
1|
1!"
1D$
#14999000
b00001000 !
0"
b00001000 #
0$
0&
1'
1(
b01 +
b00 ,
b00 -
b00001000 .
b00000111 /
b00000001 0
b11111000 1
b00001000 2
b01 3
b00 4
b00 5
b00001000 6
08
b00000111 9
b00000001 :
b00000111 ?
b00000001 @
0A
b00001000 B
b00000001 C
b11111110 D
b11111111 E
b00000111 F
b00000001 G
b00001000 H
1I
1J
1K
1P
1Q
0S
1T
0U
1W
1X
1Y
0Z
1[
0\
0^
1`
1b
0c
1d
1e
1f
1h
1j
1l
1m
0n
1o
1p
1r
0s
1t
1u
1v
1x
1z
1|
1}
0!"
1""
1%"
1&"
10"
11"
b11111110 s"
b11111111 u"
0v"
0w"
0x"
0y"
0z"
0{"
0|"
0}"
1##
0$#
1%#
0'#
0(#
1*#
0+#
1,#
1.#
02#
13#
04#
06#
0=#
1>#
0?#
0B#
1C#
0D#
0F#
0M#
1N#
0O#
0R#
1S#
0T#
0V#
0]#
1^#
0_#
0b#
1c#
0d#
0f#
0m#
1n#
0o#
0r#
1s#
0t#
0v#
0}#
1!$
0"$
0%$
1&$
0'$
0)$
00$
11$
02$
05$
16$
07$
09$
0@$
1A$
0B$
0C$
0E$
0N$
0S$
0X$
0]$
0a$
#15000000
0%
07
0D$
#15999000
1"
1$
1C$
1N$
1S$
1X$
1]$
1a$
#16000000
1%
17
1D$
#16999000
b11101000 !
0"
b11101000 #
0$
1&
0'
0(
b10 +
b10 -
b11111000 .
b00000000 /
b11111111 2
b10 3
b10 5
b11111000 6
18
b00000000 9
b00000000 ?
1A
b11111111 B
b11111111 C
b00000000 F
b11111111 G
b11111111 H
0I
0J
0K
0L
0M
0N
0O
0P
1S
0T
1U
0W
0X
1Z
0[
1\
1^
0`
1a
0b
1c
0d
1e
0f
0g
0h
1i
1j
0k
1l
0m
1n
0o
0p
1q
0r
1s
0t
1u
0v
0w
0x
1y
1z
0{
1|
0}
1!"
0""
1$"
0%"
1&"
0'"
1("
0)"
1,"
1-"
1/"
00"
11"
02"
14"
05"
16"
07"
18"
09"
1<"
1="
1?"
0@"
1A"
0B"
1D"
0E"
1F"
0G"
1H"
0I"
1L"
1M"
1O"
0P"
1Q"
0R"
1T"
0U"
1V"
0W"
1X"
0Y"
1\"
1]"
1_"
0`"
1a"
0b"
1d"
0e"
1f"
0g"
1h"
0i"
1l"
1m"
1o"
0p"
1q"
0r"
0C$
0N$
0S$
0X$
0]$
0a$
#17000000
0%
07
0D$
#17999000
1"
1$
1C$
1N$
1S$
1X$
1]$
1a$
#18000000
1%
b11111000 /
b11110111 2
17
b11111000 9
b11111000 =
b11111000 ?
b11110111 B
b11111000 F
b11110111 H
1L
1M
1N
1O
1#"
0&"
1'"
0("
1*"
1+"
0-"
1."
0/"
01"
13"
15"
16"
17"
08"
1:"
1;"
0="
1>"
0?"
1@"
1A"
1C"
1E"
1F"
1G"
0H"
1J"
1K"
0M"
1N"
0O"
1P"
1Q"
1S"
1U"
1V"
1W"
0X"
1Z"
1["
0]"
1^"
0_"
1`"
1a"
1c"
1e"
1f"
1g"
0h"
1j"
1k"
0m"
1n"
0o"
1p"
1q"
1D$
#18999000
b00010000 !
0"
b00010000 #
0$
0&
1'
1(
0*
b10 +
b01 -
b11111001 .
b11111000 /
b00000000 1
b11111001 2
b10 3
b01 5
b11111001 6
08
b11111000 9
b11111000 ?
0A
b11111001 B
b00000001 C
b11111000 F
b00000001 G
b11111001 H
0I
0L
0M
0N
0O
0P
1S
0T
1U
0W
0X
1Z
0[
1\
1^
0a
0b
0c
0e
0i
0j
0l
0m
0n
0q
0s
0u
0y
0z
0|
0!"
1#"
0$"
1&"
0'"
1("
0*"
1+"
0,"
1-"
0."
1/"
11"
13"
04"
05"
16"
07"
18"
09"
0:"
1;"
0<"
1="
0>"
1?"
0@"
1A"
0B"
1C"
0D"
0E"
1F"
0G"
1H"
0I"
0J"
1K"
0L"
1M"
0N"
1O"
0P"
1Q"
0R"
1S"
0T"
0U"
1V"
0W"
1X"
0Y"
0Z"
1["
0\"
1]"
0^"
1_"
0`"
1a"
0b"
1c"
0d"
0e"
1f"
0g"
1h"
0i"
0j"
1k"
0l"
1m"
0n"
1o"
0p"
1q"
0r"
0C$
1E$
0N$
0S$
0X$
0]$
0a$
#19000000
0%
07
0D$
#19999000
1"
1$
1C$
1N$
1S$
1X$
1]$
1a$
#20000000
1%
17
1D$
#20999000
b01110001 !
0"
b01110001 #
0$
1&
0'
b00 +
b01 ,
b11 -
b00001000 .
b00000001 /
b00000111 0
b00000001 1
b00001000 2
b00 3
b01 4
b11 5
b00001000 6
18
b00000001 9
b00000111 :
b00000001 ?
b00000111 @
b00001000 B
b00000111 C
b11111000 D
b11111001 E
b00000001 F
b00000111 G
b00001000 H
1I
1J
1K
1P
0S
1T
0U
1W
1X
0Z
1[
0\
0^
1a
1b
0c
1d
1e
1f
1i
1j
1l
1m
0n
1o
1q
1r
0s
1t
1u
1v
1y
1z
1|
1}
0!"
1""
0#"
1%"
1&"
0("
0+"
0-"
0/"
10"
11"
03"
06"
08"
0;"
0="
0?"
0A"
0C"
0F"
0H"
0K"
0M"
0O"
0Q"
0S"
0V"
0X"
0["
0]"
0_"
0a"
0c"
0f"
0h"
0k"
0m"
0o"
0q"
b11111000 s"
b11111001 u"
00#
03#
05#
08#
0:#
0<#
0>#
0@#
0C#
0E#
0H#
0J#
0L#
0N#
0C$
0N$
0S$
0X$
0]$
0a$
#21000000
0%
07
0D$
#21999000
1"
1$
1C$
1N$
1S$
1X$
1]$
1a$
#22000000
1%
17
b00001000 >
1D$
#22999000
b00011000 !
0"
b00011000 #
0$
0&
1'
b11 +
b00 ,
b01 -
b00001001 .
b00001000 /
b00000001 0
b11111000 1
b00001001 2
b11 3
b00 4
b01 5
b00001001 6
08
b00001000 9
b00000001 :
b00001000 ?
b00000001 @
b00001001 B
b00000001 C
b11111110 D
b11111111 E
b00001000 F
b00000001 G
b00001001 H
0I
0J
0K
0L
0P
1S
0T
1U
0W
0X
1Z
0[
1\
1^
0a
0b
0d
0e
0f
0i
0j
0l
0m
0o
0q
0r
0s
0t
0u
0v
0y
0z
0|
0}
0!"
0""
1#"
0%"
1&"
0'"
1("
0)"
1+"
1-"
1/"
00"
11"
02"
03"
05"
06"
08"
0;"
0="
0?"
0@"
0A"
0C"
0F"
0H"
0K"
0M"
0O"
0Q"
0S"
0V"
0X"
0["
0]"
0_"
0a"
0c"
0f"
0h"
0k"
0m"
0o"
0q"
b11111110 s"
b11111111 u"
10#
13#
15#
18#
1:#
1<#
1>#
1@#
1C#
1E#
1H#
1J#
1L#
1N#
0C$
0N$
0S$
0X$
0]$
0a$
#23000000
0%
07
0D$
#23999000
1"
1$
1C$
1N$
1S$
1X$
1]$
1a$
#24000000
1%
17
1D$
#24999000
b01111111 !
0"
b01111111 #
0$
1&
0'
1*
b11 ,
b11 -
b00010000 .
b00001000 0
b11111111 1
b00010000 2
b11 4
b11 5
b00010000 6
18
b00001000 :
b00001000 @
b00010000 B
b00001000 C
b11110111 D
b11111000 E
b00001000 G
b00010000 H
1L
0Q
0S
0U
0Y
0Z
0\
0^
1$"
0&"
1'"
0("
1*"
1,"
0-"
1."
0/"
01"
15"
16"
1@"
1A"
b11110111 s"
b11111000 u"
1v"
1w"
1x"
1}"
0##
1$#
0%#
1'#
1(#
0*#
1+#
0,#
0.#
12#
03#
14#
16#
1=#
0>#
1?#
1B#
0C#
1D#
1F#
1M#
0N#
1O#
0P#
1R#
1S#
0U#
0X#
0Z#
0\#
1]#
1^#
0C$
0N$
0S$
0X$
0]$
0a$
#25000000
0%
07
0D$
#25999000
1"
1$
1C$
1N$
1S$
1X$
1]$
1a$
#26000000
1%
b00100000 .
b00010000 /
b00010000 0
b00100000 2
b00100000 6
17
b00010000 9
b00010000 :
b00010000 >
b00010000 ?
b00010000 @
b00100000 B
b00010000 C
b11101111 D
b11110000 E
b00010000 F
b00010000 G
b00100000 H
0L
1M
0#"
0$"
0&"
0'"
0("
0*"
0+"
0,"
0-"
0."
0/"
01"
13"
14"
05"
06"
17"
08"
09"
1:"
1;"
1<"
0="
1>"
0?"
0@"
0A"
0B"
1E"
1F"
1P"
1Q"
b11101111 s"
b11110000 u"
1y"
1P#
0S#
1T#
1U#
1V#
1X#
1Z#
1\#
0^#
1_#
0`#
1b#
1c#
0e#
0h#
0j#
0l#
1m#
1n#
1D$
#26999000
b00011000 !
0"
b00011000 #
0$
0&
1'
0*
b11 +
b00 ,
b01 -
b00010001 .
b00010000 /
b00000001 0
b11111000 1
b00010001 2
b11 3
b00 4
b01 5
b00010001 6
08
b00010000 9
b00000001 :
b00010000 ?
b00000001 @
b00010001 B
b00000001 C
b11111110 D
b11111111 E
b00010000 F
b00000001 G
b00010001 H
0M
0N
1Q
1S
1U
1Y
1Z
1\
1^
0#"
0&"
0("
0+"
0-"
0/"
01"
04"
16"
07"
18"
0:"
0<"
1="
0>"
1?"
1A"
0C"
0E"
0F"
0G"
0H"
0I"
0K"
0M"
0O"
0P"
0Q"
0R"
0S"
0U"
0V"
0X"
0["
0]"
0_"
0`"
0a"
0c"
0f"
0h"
0k"
0m"
0o"
0q"
b11111110 s"
b11111111 u"
0v"
0w"
0x"
0y"
0z"
0{"
0|"
0}"
1##
0$#
1%#
0'#
0(#
1*#
0+#
1,#
1.#
02#
13#
04#
06#
0=#
1>#
0?#
0B#
1C#
0D#
0F#
0M#
1N#
0O#
0R#
1S#
0T#
0V#
0]#
1^#
0_#
1`#
0b#
1c#
0d#
1e#
0f#
1h#
1j#
1l#
0m#
1n#
0o#
0r#
1s#
0t#
0v#
0}#
1!$
0"$
0%$
1&$
0'$
0)$
00$
11$
02$
05$
16$
07$
09$
0@$
1A$
0B$
0C$
0N$
0S$
0X$
0]$
0a$
#27000000
0%
07
0D$
